
{
    "data": [
        {
            "id": 1,
            "name": "KFC Chicken Pizza",
            "desc": "Tasty KFC chicken on a gravy base with delicious twister sauce topped with sweetcorn and KFC spicy sprinkle ",
            "price":"$19.99",
            "img": "../images/product-1.jpg",
            "button": "Add to cart" 
        },
        {
            "id": 2,
            "name": "Super Supreme",
            "desc": "Our famous combination of Beef Pepperoni, juicy Beef, Mushrooms, Green Peppers, Onions, Black Olives and melting mozzarella cheese. ",
            "price":"$19.99",
            "img": "",
            "button": "Add to cart" 
        },
        {
            "id": 3,
            "name": "Classic Pepperoni",
            "desc": "One of our all time specialties. A meaty feast of Pepperoni, Mushroom , Black Olives, mozzarella cheese and tomato sauce ",
            "price":"$19.99",
            "img": "",
            "button": "Add to cart" 
        },
        {
            "id": 4,
            "name": "Chicken Supreme",
            "desc": "The ultimate mix of Chicken together with Mushrooms, Red Onions, Green Peppers, fresh Tomatoes, Olives and melting mozzarella cheese.",
            "price":"$19.99",
            "img": "",
            "button": "Add to cart" 
        },
        {
            "id": 5,
            "name": "Spicy Chicken Ranch",
            "desc": "Grilled chicken, fresh tomatoes, mushrooms and green Jalapeño peppers with a drizzle of ranch sauce topped with mozzarella cheese. ",
            "price":"$19.99",
            "img": "",
            "button": "Add to cart" 
        },
        {
            "id": 6,
            "name": "Sea Food Lovers",
            "desc": "The Ultimate Seafood pizza! Generously Topped with a sea of prawns, Calamari, Parsley and a touch of Garlic ",
            "price":"$19.99",
            "img": "",
            "button": "Add to cart" 
        }
    ],

    "meta": {
        "current_page": 1,
        "last_page": 5,
        "total": 15
    }
}